# 3ds Max Wavefront OBJ Exporter v0.97b - (c)2007 guruware
# File Created: 19.11.2015 22:26:34

mtllib box.mtl

#
# object Box001
#

v  -8.3462 0.0000 15.8209
v  14.8678 0.0000 15.8209
v  -8.3462 0.0000 -10.0730
v  14.8678 0.0000 -10.0730
v  -8.3462 10.8536 15.8209
v  14.8678 10.8536 15.8209
v  -8.3462 10.8536 -10.0730
v  14.8678 10.8536 -10.0730
# 8 vertices

vn 0.0000 -1.0000 -0.0000
vn 0.0000 -1.0000 -0.0000
vn 0.0000 -1.0000 -0.0000
vn 0.0000 -1.0000 -0.0000
vn 0.0000 -1.0000 -0.0000
vn 0.0000 -1.0000 -0.0000
vn 0.0000 1.0000 -0.0000
vn 0.0000 1.0000 -0.0000
vn 0.0000 1.0000 -0.0000
vn 0.0000 1.0000 -0.0000
vn 0.0000 1.0000 -0.0000
vn 0.0000 1.0000 -0.0000
vn 0.0000 0.0000 1.0000
vn 0.0000 0.0000 1.0000
vn 0.0000 0.0000 1.0000
vn 0.0000 0.0000 1.0000
vn 0.0000 0.0000 1.0000
vn 0.0000 0.0000 1.0000
vn 1.0000 0.0000 -0.0000
vn 1.0000 0.0000 -0.0000
vn 1.0000 0.0000 -0.0000
vn 1.0000 0.0000 -0.0000
vn 1.0000 0.0000 -0.0000
vn 1.0000 0.0000 -0.0000
vn 0.0000 0.0000 -1.0000
vn 0.0000 0.0000 -1.0000
vn 0.0000 0.0000 -1.0000
vn 0.0000 0.0000 -1.0000
vn 0.0000 0.0000 -1.0000
vn 0.0000 0.0000 -1.0000
vn -1.0000 0.0000 -0.0000
vn -1.0000 0.0000 -0.0000
vn -1.0000 0.0000 -0.0000
vn -1.0000 0.0000 -0.0000
vn -1.0000 0.0000 -0.0000
vn -1.0000 0.0000 -0.0000
# 36 vertex normals

vt 0.0000 0.0000 0.0000
vt 1.0000 0.0000 0.0000
vt 0.0000 1.0000 0.0000
vt 1.0000 1.0000 0.0000
vt 0.0000 0.0000 0.0000
vt 1.0000 0.0000 0.0000
vt 0.0000 1.0000 0.0000
vt 1.0000 1.0000 0.0000
vt 0.0000 0.0000 0.0000
vt 1.0000 0.0000 0.0000
vt 0.0000 1.0000 0.0000
vt 1.0000 1.0000 0.0000
# 12 texture coords

g Box001
usemtl canister
f 1/10/1 3/12/2 4/11/3 
f 4/11/4 2/9/5 1/10/6 
f 5/9/7 6/10/8 8/12/9 
f 8/12/10 7/11/11 5/9/12 
f 1/5/13 2/6/14 6/8/15 
f 6/8/16 5/7/17 1/5/18 
f 2/1/19 4/2/20 8/4/21 
f 8/4/22 6/3/23 2/1/24 
f 4/5/25 3/6/26 7/8/27 
f 7/8/28 8/7/29 4/5/30 
f 3/1/31 1/2/32 5/4/33 
f 5/4/34 7/3/35 3/1/36 
# 12 faces

